{
    "modules": [
        {
            "config": {
                "position": [
                    59,
                    101
                ]
            },
            "name": "New Model Object",
            "value": {
                "actionGroup": {
                    "_default0_list": false,
                    "_default1_show": false,
                    "_default2_new_create": false,
                    "_default3_edit_update": false,
                    "_default4_delete": false,
                    "customActions": [
                        "render"
                    ]
                },
                "name": "Btn",
                "objectsettings": {
                    "addDeletedField": true,
                    "addHiddenField": true,
                    "addStarttimeEndtimeFields": true,
                    "aggregateRoot": true,
                    "categorizable": false,
                    "description": "",
                    "mapToTable": "",
                    "parentClass": "",
                    "sorting": true,
                    "type": "Entity",
                    "uid": "1465267982647"
                },
                "propertyGroup": {
                    "properties": [
                        {
                            "allowedFileTypes": "",
                            "maxItems": "1",
                            "propertyDescription": "",
                            "propertyIsExcludeField": false,
                            "propertyIsRequired": true,
                            "propertyName": "backendTitle",
                            "propertyType": "String",
                            "uid": "882567556007"
                        },
                        {
                            "allowedFileTypes": "",
                            "maxItems": "1",
                            "propertyDescription": "",
                            "propertyIsExcludeField": false,
                            "propertyIsRequired": true,
                            "propertyName": "title",
                            "propertyType": "String",
                            "uid": "562441092681"
                        },
                        {
                            "allowedFileTypes": "",
                            "maxItems": "1",
                            "propertyDescription": "",
                            "propertyIsExcludeField": false,
                            "propertyIsRequired": true,
                            "propertyName": "alternative",
                            "propertyType": "String",
                            "uid": "1034767823489"
                        },
                        {
                            "allowedFileTypes": "",
                            "maxItems": "1",
                            "propertyDescription": "",
                            "propertyIsExcludeField": false,
                            "propertyIsRequired": true,
                            "propertyName": "value",
                            "propertyType": "String",
                            "uid": "581737490980"
                        },
                        {
                            "allowedFileTypes": "",
                            "maxItems": "1",
                            "propertyDescription": "",
                            "propertyIsExcludeField": false,
                            "propertyIsRequired": false,
                            "propertyName": "link",
                            "propertyType": "String",
                            "uid": "1475357685812"
                        },
                        {
                            "allowedFileTypes": "",
                            "maxItems": "1",
                            "propertyDescription": "",
                            "propertyIsExcludeField": false,
                            "propertyIsRequired": false,
                            "propertyName": "classColor",
                            "propertyType": "String",
                            "uid": "770075924118"
                        },
                        {
                            "allowedFileTypes": "",
                            "maxItems": "1",
                            "propertyDescription": "",
                            "propertyIsExcludeField": false,
                            "propertyIsRequired": false,
                            "propertyName": "classSize",
                            "propertyType": "String",
                            "uid": "1133917470215"
                        },
                        {
                            "allowedFileTypes": "",
                            "maxItems": "1",
                            "propertyDescription": "",
                            "propertyIsExcludeField": false,
                            "propertyIsRequired": false,
                            "propertyName": "classAdditional",
                            "propertyType": "String",
                            "uid": "973312071784"
                        },
                        {
                            "allowedFileTypes": "",
                            "maxItems": "1",
                            "propertyDescription": "",
                            "propertyIsExcludeField": false,
                            "propertyIsRequired": false,
                            "propertyName": "classGlyphicon",
                            "propertyType": "String",
                            "uid": "504032864315"
                        },
                        {
                            "allowedFileTypes": "",
                            "maxItems": "1",
                            "propertyDescription": "",
                            "propertyIsExcludeField": false,
                            "propertyIsRequired": false,
                            "propertyName": "justify",
                            "propertyType": "Boolean",
                            "uid": "2477010336"
                        },
                        {
                            "allowedFileTypes": "",
                            "maxItems": "1",
                            "propertyDescription": "",
                            "propertyIsExcludeField": false,
                            "propertyIsRequired": false,
                            "propertyName": "additionalParams",
                            "propertyType": "Text",
                            "uid": "744575730844"
                        }
                    ]
                },
                "relationGroup": {
                    "relations": []
                }
            }
        },
        {
            "config": {
                "position": [
                    320,
                    100
                ]
            },
            "name": "New Model Object",
            "value": {
                "actionGroup": {
                    "_default0_list": false,
                    "_default1_show": false,
                    "_default2_new_create": false,
                    "_default3_edit_update": false,
                    "_default4_delete": false,
                    "customActions": [
                        "render"
                    ]
                },
                "name": "BtnGroup",
                "objectsettings": {
                    "addDeletedField": true,
                    "addHiddenField": true,
                    "addStarttimeEndtimeFields": true,
                    "aggregateRoot": true,
                    "categorizable": false,
                    "description": "",
                    "mapToTable": "",
                    "parentClass": "",
                    "sorting": true,
                    "type": "Entity",
                    "uid": "114127823114"
                },
                "propertyGroup": {
                    "properties": [
                        {
                            "allowedFileTypes": "",
                            "maxItems": "1",
                            "propertyDescription": "",
                            "propertyIsExcludeField": false,
                            "propertyIsRequired": true,
                            "propertyName": "backendTitle",
                            "propertyType": "String",
                            "uid": "571929260591"
                        },
                        {
                            "allowedFileTypes": "",
                            "maxItems": "1",
                            "propertyDescription": "",
                            "propertyIsExcludeField": false,
                            "propertyIsRequired": false,
                            "propertyName": "dropdownTitle",
                            "propertyType": "String",
                            "uid": "296873384256"
                        },
                        {
                            "allowedFileTypes": "",
                            "maxItems": "1",
                            "propertyDescription": "",
                            "propertyIsExcludeField": false,
                            "propertyIsRequired": false,
                            "propertyName": "dropdownHeader",
                            "propertyType": "String",
                            "uid": "1411324572637"
                        },
                        {
                            "allowedFileTypes": "",
                            "maxItems": "1",
                            "propertyDescription": "",
                            "propertyIsExcludeField": false,
                            "propertyIsRequired": false,
                            "propertyName": "dropdown",
                            "propertyType": "Boolean",
                            "uid": "929004872434"
                        },
                        {
                            "allowedFileTypes": "",
                            "maxItems": "1",
                            "propertyDescription": "",
                            "propertyIsExcludeField": false,
                            "propertyIsRequired": false,
                            "propertyName": "classSize",
                            "propertyType": "Select",
                            "uid": "1400997931527"
                        },
                        {
                            "allowedFileTypes": "",
                            "maxItems": "1",
                            "propertyDescription": "",
                            "propertyIsExcludeField": false,
                            "propertyIsRequired": false,
                            "propertyName": "vertical",
                            "propertyType": "Boolean",
                            "uid": "957436010858"
                        },
                        {
                            "allowedFileTypes": "",
                            "maxItems": "1",
                            "propertyDescription": "",
                            "propertyIsExcludeField": false,
                            "propertyIsRequired": false,
                            "propertyName": "justify",
                            "propertyType": "Boolean",
                            "uid": "432934667017"
                        }
                    ]
                },
                "relationGroup": {
                    "relations": [
                        {
                            "foreignRelationClass": "",
                            "lazyLoading": false,
                            "propertyIsExcludeField": false,
                            "relationDescription": "",
                            "relationName": "btnGroup",
                            "relationType": "manyToMany",
                            "relationWire": "[wired]",
                            "uid": "424768580233"
                        },
                        {
                            "foreignRelationClass": "",
                            "lazyLoading": false,
                            "propertyIsExcludeField": false,
                            "relationDescription": "",
                            "relationName": "btn",
                            "relationType": "manyToMany",
                            "relationWire": "[wired]",
                            "uid": "807418127065"
                        }
                    ]
                }
            }
        },
        {
            "config": {
                "position": [
                    794,
                    102
                ]
            },
            "name": "New Model Object",
            "value": {
                "actionGroup": {
                    "_default0_list": false,
                    "_default1_show": false,
                    "_default2_new_create": false,
                    "_default3_edit_update": false,
                    "_default4_delete": false,
                    "customActions": [
                        "render"
                    ]
                },
                "name": "Documentation",
                "objectsettings": {
                    "addDeletedField": true,
                    "addHiddenField": true,
                    "addStarttimeEndtimeFields": true,
                    "aggregateRoot": true,
                    "categorizable": false,
                    "description": "",
                    "mapToTable": "",
                    "parentClass": "",
                    "sorting": false,
                    "type": "Entity",
                    "uid": "29690367477"
                },
                "propertyGroup": {
                    "properties": []
                },
                "relationGroup": {
                    "relations": []
                }
            }
        }
    ],
    "properties": {
        "backendModules": [],
        "description": "NO FLUX :)",
        "emConf": {
            "category": "plugin",
            "custom_category": "",
            "dependsOn": "typo3 => 6.2.0-7.6.99\n",
            "disableLocalization": false,
            "disableVersioning": false,
            "skipGenerateDocumentationTemplate": false,
            "sourceLanguage": "en",
            "state": "alpha",
            "targetVersion": "7.6.0-7.6.99",
            "version": "0.0.1"
        },
        "extensionKey": "teufels_cpt_cnt_bs_btn2",
        "name": "teufels_cpt_cnt_bs_btn2",
        "originalExtensionKey": "teufels_cpt_cnt_bs_btn2",
        "originalVendorName": "TEUFELS",
        "persons": [
            {
                "company": "teufels GmbH",
                "email": "a.hafner@teufels.com",
                "name": "Andreas Hafner",
                "role": "Developer"
            },
            {
                "company": "teufels GmbH",
                "email": "d.hilser@teufels.com",
                "name": "Dominik Hilser",
                "role": "Developer"
            },
            {
                "company": "teufels GmbH",
                "email": "g.kathan@teufels.com",
                "name": "Georg Kathan",
                "role": "Developer"
            },
            {
                "company": "teufels GmbH",
                "email": "h.krueger@teufels.com",
                "name": "Hendrik Kr\u00fcger",
                "role": "Developer"
            },
            {
                "company": "teufels GmbH",
                "email": "j.rodriguez@teufels.com",
                "name": "Josymar Escalona Rodriguez",
                "role": "Developer"
            },
            {
                "company": "teufels GmbH",
                "email": "p.ennen@teufels.com",
                "name": "Perrin Ennen",
                "role": "Developer"
            },
            {
                "company": "teufels GmbH",
                "email": "t.bittner@teufels.com",
                "name": "Timo Bittner",
                "role": "Developer"
            }
        ],
        "plugins": [
            {
                "actions": {
                    "controllerActionCombinations": "Btn => render",
                    "noncacheableActions": "Btn => render",
                    "switchableActions": ""
                },
                "key": "teufelscptcntbsbtn2render",
                "name": "Button or Button Group"
            },
            {
                "actions": {
                    "controllerActionCombinations": "Documentation => render",
                    "noncacheableActions": "Documentation => render",
                    "switchableActions": ""
                },
                "key": "teufelscptcntbsbtn2documentation",
                "name": "Button :: User documentation"
            }
        ],
        "vendorName": "TEUFELS"
    },
    "wires": [
        {
            "src": {
                "moduleId": 1,
                "terminal": "relationWire_0",
                "uid": "424768580233"
            },
            "tgt": {
                "moduleId": 1,
                "terminal": "SOURCES",
                "uid": "114127823114"
            }
        },
        {
            "src": {
                "moduleId": 1,
                "terminal": "relationWire_1",
                "uid": "807418127065"
            },
            "tgt": {
                "moduleId": 0,
                "terminal": "SOURCES",
                "uid": "1465267982647"
            }
        }
    ],
    "log": {
        "last_modified": "2017-11-30 11:19",
        "extension_builder_version": "7.6.0",
        "be_user": " (14)"
    }
}